{
  "openapi": "3.0.1",
  "info": {
    "title": "API V1",
    "version": "v1"
  },
  "components": {
    "securitySchemes": {
      "bearerAuth": {
        "type": "http",
        "scheme": "bearer",
        "bearerFormat": "JWT"
      }
    },
    "schemas": {
      "user": {
        "properties": {
          "email": {
            "type": "string",
            "format": "email",
            "required": true
          },
          "password": {
            "type": "string",
            "format": "password",
            "required": true
          },
          "password_confirmation": {
            "type": "string",
            "format": "password",
            "required": true
          }
        },
        "example": {
          "email": "root@localhost.local",
          "password": "password",
          "password_confirmation": "password"
        }
      },
      "token": {
        "properties": {
          "email": {
            "type": "string",
            "format": "email",
            "required": true
          },
          "password": {
            "type": "string",
            "format": "password",
            "required": true
          },
          "grant_type": {
            "type": "string",
            "format": "password",
            "required": true,
            "enum": [
              "password"
            ]
          }
        },
        "example": {
          "email": "root@localhost.local",
          "password": "password",
          "grant_type": "password"
        }
      }
    }
  },
  "paths": {
    "/api/v1/users": {
      "post": {
        "summary": "Registration a user",
        "tags": [
          "Users"
        ],
        "description": "Create a new user",
        "requestBody": {
          "required": true,
          "content": {
            "application/json": {
              "schema": {
                "$ref": "#/components/schemas/user"
              }
            }
          }
        },
        "responses": {
          "201": {
            "description": "user created",
            "content": {
              "application/json": {
                "schema": {
                  "$ref": "#/components/schemas/user"
                }
              }
            }
          },
          "422": {
            "description": "invalid request",
            "content": {
              "application/json": {
                "schema": {
                  "$ref": "#/components/schemas/user"
                }
              }
            }
          }
        }
      }
    },
    "/api/v1/oauth/token  ": {
      "post": {
        "summary": "Create a token session",
        "tags": [
          "Sessions"
        ],
        "description": "Create a new user token",
        "requestBody": {
          "required": true,
          "content": {
            "application/json": {
              "schema": {
                "$ref": "#/components/schemas/token"
              }
            }
          }
        },
        "responses": {
          "201": {
            "description": "user created",
            "content": {
              "application/json": {
                "schema": {
                  "$ref": "#/components/schemas/token"
                }
              }
            }
          },
          "422": {
            "description": "invalid request",
            "content": {
              "application/json": {
                "schema": {
                  "$ref": "#/components/schemas/token"
                }
              }
            }
          }
        }
      }
    },
    "/api/v1/me": {
      "get": {
        "summary": "Get user information form user authenticate",
        "tags": [
          "Sessions"
        ],
        "security": [
          {
            "bearerAuth": [

            ]
          }
        ],
        "description": "Get form current user",
        "responses": {
          "200": {
            "description": "request sucess"
          },
          "401": {
            "description": "unathorized invalid token"
          }
        }
      }
    }
  }
}